modulos_pruebas/receptor/bram_tb/v1/bram_int_tb.vcd
$date
	Sun Apr 21 19:04:37 2024
$end
$version
	Icarus Verilog
$end
$timescale
	1ps
$end
$scope module bram_int_tb $end
$var wire 32 ! addr [31:0] $end
$var wire 1 " clkb $end
$var wire 32 # din [31:0] $end
$var wire 1 $ ena $end
$var wire 1 % enb $end
$var wire 2 & rdy [1:0] $end
$var wire 32 ' size_data [31:0] $end
$var wire 4 ( we [3:0] $end
$var reg 1 ) clk $end
$var reg 32 * datos [31:0] $end
$var reg 32 + i [31:0] $end
$var reg 1 , rdy_w $end
$var reg 1 - sinc $end
$var reg 1 . valid $end
$scope module dut_int $end
$var wire 32 / addr [31:0] $end
$var wire 32 0 addr_count [31:0] $end
$var wire 1 1 clk $end
$var wire 1 " clkb $end
$var wire 32 2 datos [31:0] $end
$var wire 32 3 din [31:0] $end
$var wire 1 4 en $end
$var wire 1 $ en_a $end
$var wire 1 % en_b $end
$var wire 2 5 rdy [1:0] $end
$var wire 1 6 rdy_w $end
$var wire 1 7 rst_ctrl $end
$var wire 1 8 sinc $end
$var wire 1 9 sinc_wire $end
$var wire 1 : sincedge_wire $end
$var wire 32 ; size_data [31:0] $end
$var wire 1 < valid $end
$var wire 4 = we [3:0] $end
$scope module bram_1 $end
$var wire 32 > addr [31:0] $end
$var wire 1 1 clk $end
$var wire 1 4 enable $end
$var wire 1 4 hab $end
$var wire 1 7 rst $end
$var wire 1 < valid $end
$var reg 32 ? addr_count [31:0] $end
$var reg 1 @ bandera $end
$var reg 8 A count [7:0] $end
$upscope $end
$scope module bram_2 $end
$var wire 1 1 clk $end
$var wire 1 9 sinc $end
$var wire 1 : sinc_edge $end
$var reg 1 B sinc_prev $end
$var reg 1 C sinc_reg $end
$upscope $end
$scope module bram_3 $end
$var wire 32 D addr [31:0] $end
$var wire 1 1 clk $end
$var wire 1 4 en $end
$var wire 1 $ en_a $end
$var wire 1 % en_b $end
$var wire 2 E rdy [1:0] $end
$var wire 1 6 rdy_w $end
$var wire 1 7 rst_count $end
$var wire 1 9 sinc $end
$var wire 1 : sinc_edge $end
$var wire 32 F size_data [31:0] $end
$var reg 1 G ena_reg $end
$var reg 1 H enb_reg $end
$var reg 2 I estado_actual [1:0] $end
$var reg 2 J rdy_reg [1:0] $end
$var reg 1 K rst_reg $end
$var reg 32 L size_reg [31:0] $end
$upscope $end
$upscope $end
$upscope $end
$enddefinitions $end
#0
$dumpvars
b0 L
1K
b0 J
b0 I
0H
0G
b0 F
b0 E
b0 D
xC
xB
b0 A
0@
b0 ?
b0 >
b0 =
0<
b0 ;
x:
09
18
17
x6
b0 5
04
b0 3
b0 2
01
b0 0
b0 /
0.
1-
x,
b0 +
b0 *
0)
b0 (
b0 '
b0 &
0%
0$
b0 #
0"
b0 !
$end
#4069
0C
0:
0B
1)
1"
11
#8138
0)
0"
01
#12207
1)
1"
11
#16276
0)
0"
01
#20345
1)
1"
11
#24414
0)
0"
01
#28483
1)
1"
11
#32552
0)
0"
01
#36621
1C
1:
1B
b1111 (
b1111 =
1)
1"
11
1.
1<
0,
06
0-
08
19
#40690
0)
0"
01
#44759
b1 I
1G
1$
0K
07
0C
0:
b0 (
b0 =
1)
1"
11
0.
0<
#48828
0)
0"
01
#52897
1)
1"
11
#56966
0)
0"
01
#61035
1)
1"
11
#65104
0)
0"
01
#69173
1)
1"
11
#73242
0)
0"
01
#77311
1)
1"
11
#81380
0)
0"
01
#85449
1)
1"
11
#89518
0)
0"
01
#93587
1)
1"
11
#97656
0)
0"
01
#101725
1)
1"
11
#105794
0)
0"
01
#109863
1)
1"
11
#113932
0)
0"
01
#118001
1)
1"
11
#122070
0)
0"
01
#126139
1@
b1111 (
b1111 =
1)
1"
11
1.
1<
b1 +
#130208
0)
0"
01
#134277
b1 A
b0 (
b0 =
1)
1"
11
0.
0<
#138346
0)
0"
01
#142415
b10 A
1)
1"
11
#146484
0)
0"
01
#150553
0@
b100 ?
b100 0
b100 >
b100 D
b100 !
b100 /
b0 A
1)
1"
11
#154622
0)
0"
01
#158691
1)
1"
11
#162760
0)
0"
01
#166829
1)
1"
11
#170898
0)
0"
01
#174967
1)
1"
11
#179036
0)
0"
01
#183105
1)
1"
11
#187174
0)
0"
01
#191243
1)
1"
11
#195312
0)
0"
01
#199381
1)
1"
11
#203450
0)
0"
01
#207519
1)
1"
11
#211588
0)
0"
01
#215657
1@
b1111 (
b1111 =
1)
1"
11
1.
1<
b10 +
#219726
0)
0"
01
#223795
b1 A
b0 (
b0 =
1)
1"
11
0.
0<
#227864
0)
0"
01
#231933
b10 A
1)
1"
11
#236002
0)
0"
01
#240071
0@
b1000 ?
b1000 0
b1000 >
b1000 D
b1000 !
b1000 /
b0 A
1)
1"
11
#244140
0)
0"
01
#248209
1)
1"
11
#252278
0)
0"
01
#256347
1)
1"
11
#260416
0)
0"
01
#264485
1)
1"
11
#268554
0)
0"
01
#272623
1)
1"
11
#276692
0)
0"
01
#280761
1)
1"
11
#284830
0)
0"
01
#288899
1)
1"
11
#292968
0)
0"
01
#297037
1)
1"
11
#301106
0)
0"
01
#305175
1@
b1111 (
b1111 =
1)
1"
11
1.
1<
b11 +
#309244
0)
0"
01
#313313
b1 A
b0 (
b0 =
1)
1"
11
0.
0<
#317382
0)
0"
01
#321451
b10 A
1)
1"
11
#325520
0)
0"
01
#329589
0@
b1100 ?
b1100 0
b1100 >
b1100 D
b1100 !
b1100 /
b0 A
1)
1"
11
#333658
0)
0"
01
#337727
1)
1"
11
#341796
0)
0"
01
#345865
1)
1"
11
#349934
0)
0"
01
#354003
1)
1"
11
#358072
0)
0"
01
#362141
1)
1"
11
#366210
0)
0"
01
#370279
1)
1"
11
#374348
0)
0"
01
#378417
1)
1"
11
#382486
0)
0"
01
#386555
1)
1"
11
#390624
0)
0"
01
#394693
1@
b1111 (
b1111 =
1)
1"
11
1.
1<
b100 +
#398762
0)
0"
01
#402831
b1 A
b0 (
b0 =
1)
1"
11
0.
0<
#406900
0)
0"
01
#410969
b10 A
1)
1"
11
#415038
0)
0"
01
#419107
0@
b10000 ?
b10000 0
b10000 >
b10000 D
b10000 !
b10000 /
b0 A
1)
1"
11
#423176
0)
0"
01
#427245
1)
1"
11
#431314
0)
0"
01
#435383
1)
1"
11
#439452
0)
0"
01
#443521
1)
1"
11
#447590
0)
0"
01
#451659
1)
1"
11
#455728
0)
0"
01
#459797
1)
1"
11
#463866
0)
0"
01
#467935
1)
1"
11
#472004
0)
0"
01
#476073
1)
1"
11
#480142
0)
0"
01
#484211
1@
b1111 (
b1111 =
1)
1"
11
1.
1<
b101 +
#488280
0)
0"
01
#492349
b1 A
b0 (
b0 =
1)
1"
11
0.
0<
#496418
0)
0"
01
#500487
b10 A
1)
1"
11
#504556
0)
0"
01
#508625
0@
b10100 ?
b10100 0
b10100 >
b10100 D
b10100 !
b10100 /
b0 A
1)
1"
11
#512694
0)
0"
01
#516763
1)
1"
11
#520832
0)
0"
01
#524901
1)
1"
11
#528970
0)
0"
01
#533039
1)
1"
11
#537108
0)
0"
01
#541177
1)
1"
11
#545246
0)
0"
01
#549315
1)
1"
11
#553384
0)
0"
01
#557453
1)
1"
11
#561522
0)
0"
01
#565591
1)
1"
11
#569660
0)
0"
01
#573729
1@
b1111 (
b1111 =
1)
1"
11
1.
1<
1,
16
b0 +
#577798
0)
0"
01
#581867
b1 A
b0 (
b0 =
1)
1"
11
0.
0<
#585936
0)
0"
01
#590005
b10 A
1)
1"
11
#594074
0)
0"
01
#598143
0@
b11000 ?
b11000 0
b11000 >
b11000 D
b11000 !
b11000 /
b0 A
1)
1"
11
#602212
0)
0"
01
#606281
1)
1"
11
#610350
0)
0"
01
#614419
1)
1"
11
#618488
0)
0"
01
#622557
1)
1"
11
#626626
0)
0"
01
#630695
1)
1"
11
#634764
0)
0"
01
#638833
1)
1"
11
#642902
0)
0"
01
#646971
1)
1"
11
#651040
0)
0"
01
#655109
1)
1"
11
#659178
0)
0"
01
#663247
1@
b1111 (
b1111 =
1)
1"
11
1.
1<
b1 +
#667316
0)
0"
01
#671385
b1 A
b0 (
b0 =
1)
1"
11
0.
0<
#675454
0)
0"
01
#679523
b10 A
1)
1"
11
#683592
0)
0"
01
#687661
0@
b11100 ?
b11100 0
b11100 >
b11100 D
b11100 !
b11100 /
b0 A
1)
1"
11
#691730
0)
0"
01
#695799
1)
1"
11
#699868
0)
0"
01
#703937
1)
1"
11
#708006
0)
0"
01
#712075
1)
1"
11
#716144
0)
0"
01
#720213
1)
1"
11
#724282
0)
0"
01
#728351
1)
1"
11
#732420
0)
0"
01
#736489
1)
1"
11
#740558
0)
0"
01
#744627
1)
1"
11
#748696
0)
0"
01
#752765
1@
b1111 (
b1111 =
1)
1"
11
1.
1<
b10 +
#756834
0)
0"
01
#760903
b1 A
b0 (
b0 =
1)
1"
11
0.
0<
#764972
0)
0"
01
#769041
b10 A
1)
1"
11
#773110
0)
0"
01
#777179
14
0@
b100000 ?
b100000 0
b100000 >
b100000 D
b100000 !
b100000 /
b0 A
1)
1"
11
#781248
0)
0"
01
#785317
04
b0 ?
b0 0
b0 >
b0 D
b0 !
b0 /
b10 I
b100000000000 L
b100000000000 '
b100000000000 ;
b100000000000 F
b1 J
b1 &
b1 5
b1 E
1H
1%
0G
0$
1K
17
1)
1"
11
#789386
0)
0"
01
#793455
0K
07
1)
1"
11
#797524
0)
0"
01
#801593
1)
1"
11
#805662
0)
0"
01
#809731
1)
1"
11
#813800
0)
0"
01
#817869
1)
1"
11
#821938
0)
0"
01
#826007
1)
1"
11
#830076
0)
0"
01
#834145
1)
1"
11
#838214
0)
0"
01
#842283
1@
b1111 (
b1111 =
1)
1"
11
1.
1<
b11 +
#846352
0)
0"
01
#850421
b1 A
b0 (
b0 =
1)
1"
11
0.
0<
#854490
0)
0"
01
#858559
b10 A
1)
1"
11
#862628
0)
0"
01
#866697
0@
b100 ?
b100 0
b100 >
b100 D
b100 !
b100 /
b0 A
1)
1"
11
#870766
0)
0"
01
#874835
1)
1"
11
#878904
0)
0"
01
#882973
1)
1"
11
#887042
0)
0"
01
#891111
1)
1"
11
#895180
0)
0"
01
#899249
1)
1"
11
#903318
0)
0"
01
#907387
1)
1"
11
#911456
0)
0"
01
#915525
1)
1"
11
#919594
0)
0"
01
#923663
1)
1"
11
#927732
0)
0"
01
#931801
1@
b1111 (
b1111 =
1)
1"
11
1.
1<
b100 +
#935870
0)
0"
01
#939939
b1 A
b0 (
b0 =
1)
1"
11
0.
0<
#944008
0)
0"
01
#948077
b10 A
1)
1"
11
#952146
0)
0"
01
#956215
0@
b1000 ?
b1000 0
b1000 >
b1000 D
b1000 !
b1000 /
b0 A
1)
1"
11
#960284
0)
0"
01
#964353
1)
1"
11
#968422
0)
0"
01
#972491
1)
1"
11
#976560
0)
0"
01
#980629
1)
1"
11
#984698
0)
0"
01
#988767
1)
1"
11
#992836
0)
0"
01
#996905
1)
1"
11
#1000974
0)
0"
01
#1005043
1)
1"
11
#1009112
0)
0"
01
#1013181
1)
1"
11
#1017250
0)
0"
01
#1021319
1@
b1111 (
b1111 =
1)
1"
11
1.
1<
b101 +
#1025388
0)
0"
01
#1029457
b1 A
b0 (
b0 =
1)
1"
11
0.
0<
#1033526
0)
0"
01
#1037595
b10 A
1)
1"
11
#1041664
0)
0"
01
#1045733
0@
b1100 ?
b1100 0
b1100 >
b1100 D
b1100 !
b1100 /
b0 A
1)
1"
11
#1049802
0)
0"
01
#1053871
1)
1"
11
#1057940
0)
0"
01
#1062009
1)
1"
11
#1066078
0)
0"
01
#1070147
1)
1"
11
#1074216
0)
0"
01
#1078285
1)
1"
11
#1082354
0)
0"
01
#1086423
1)
1"
11
#1090492
0)
0"
01
#1094561
1)
1"
11
#1098630
0)
0"
01
#1102699
1)
1"
11
#1106768
0)
0"
01
#1110837
1@
b1111 (
b1111 =
1)
1"
11
1.
1<
b110 +
#1114906
0)
0"
01
#1118975
b1 A
b0 (
b0 =
1)
1"
11
0.
0<
#1123044
0)
0"
01
#1127113
b10 A
1)
1"
11
#1131182
0)
0"
01
#1135251
0@
b10000 ?
b10000 0
b10000 >
b10000 D
b10000 !
b10000 /
b0 A
1)
1"
11
#1139320
0)
0"
01
#1143389
1)
1"
11
#1147458
0)
0"
01
#1151527
1)
1"
11
#1155596
0)
0"
01
#1159665
1)
1"
11
#1163734
0)
0"
01
#1167803
1)
1"
11
#1171872
0)
0"
01
#1175941
1)
1"
11
#1180010
0)
0"
01
#1184079
1)
1"
11
#1188148
0)
0"
01
#1192217
1)
1"
11
#1196286
0)
0"
01
#1200355
1@
b1111 (
b1111 =
1)
1"
11
1.
1<
b111 +
#1204424
0)
0"
01
#1208493
b1 A
b0 (
b0 =
1)
1"
11
0.
0<
#1212562
0)
0"
01
#1216631
b10 A
1)
1"
11
#1220700
0)
0"
01
1-
18
09
#1224769
0@
b10100 ?
b10100 0
b10100 >
b10100 D
b10100 !
b10100 /
b0 A
0B
b0 I
b100000000101 L
b100000000101 '
b100000000101 ;
b100000000101 F
b11 J
b11 &
b11 5
b11 E
0H
0%
1K
17
1)
1"
11
#1228838
0)
0"
01
#1232907
b0 ?
b0 0
b0 >
b0 D
b0 !
b0 /
1)
1"
11
#1236976
0)
0"
01
#1241045
1)
1"
11
#1245114
0)
0"
01
#1249183
1)
1"
11
#1253252
0)
0"
01
#1257321
1)
1"
11
#1261390
0)
0"
01
#1265459
1)
1"
11
#1269528
0)
0"
01
#1273597
1)
1"
11
#1277666
0)
0"
01
#1281735
1)
1"
11
#1285804
0)
0"
01
#1289873
b1111 (
b1111 =
1)
1"
11
1.
1<
b1000 +
#1293942
0)
0"
01
#1298011
b0 (
b0 =
1)
1"
11
0.
0<
#1302080
0)
0"
01
#1306149
1)
1"
11
#1310218
0)
0"
01
#1314287
1)
1"
11
#1318356
0)
0"
01
#1322425
1)
1"
11
#1326494
0)
0"
01
#1330563
1)
1"
11
#1334632
0)
0"
01
#1338701
1)
1"
11
#1342770
0)
0"
01
#1346839
1)
1"
11
#1350908
0)
0"
01
#1354977
1)
1"
11
#1359046
0)
0"
01
#1363115
1)
1"
11
#1367184
0)
0"
01
#1371253
1)
1"
11
#1375322
0)
0"
01
#1379391
b1111 (
b1111 =
1)
1"
11
1.
1<
b1001 +
#1383460
0)
0"
01
#1387529
b0 (
b0 =
1)
1"
11
0.
0<
#1391598
0)
0"
01
#1395667
1)
1"
11
#1399736
0)
0"
01
#1403805
1)
1"
11
#1407874
0)
0"
01
#1411943
1)
1"
11
#1416012
0)
0"
01
#1420081
1)
1"
11
#1424150
0)
0"
01
#1428219
1)
1"
11
#1432288
0)
0"
01
#1436357
1)
1"
11
#1440426
0)
0"
01
#1444495
1)
1"
11
#1448564
0)
0"
01
#1452633
1)
1"
11
#1456702
0)
0"
01
#1460771
1)
1"
11
#1464840
0)
0"
01
#1468909
b1111 (
b1111 =
1)
1"
11
1.
1<
b1010 +
#1472978
0)
0"
01
#1477047
b0 (
b0 =
1)
1"
11
0.
0<
#1481116
0)
0"
01
#1485185
1)
1"
11
#1489254
0)
0"
01
#1493323
1)
1"
11
#1497392
0)
0"
01
#1501461
1)
1"
11
#1505530
0)
0"
01
#1509599
1)
1"
11
#1513668
0)
0"
01
#1517737
1)
1"
11
#1521806
0)
0"
01
#1525875
1)
1"
11
#1529944
0)
0"
01
#1534013
1)
1"
11
#1538082
0)
0"
01
#1542151
1)
1"
11
#1546220
0)
0"
01
#1550289
1)
1"
11
#1554358
0)
0"
01
#1558427
b1111 (
b1111 =
1)
1"
11
1.
1<
b1011 +
#1562496
0)
0"
01
#1566565
b0 (
b0 =
1)
1"
11
0.
0<
#1570634
0)
0"
01
#1574703
1)
1"
11
#1578772
0)
0"
01
#1582841
1)
1"
11
#1586910
0)
0"
01
#1590979
1)
1"
11
#1595048
0)
0"
01
#1599117
1)
1"
11
#1603186
0)
0"
01
#1607255
1)
1"
11
#1611324
0)
0"
01
#1615393
1)
1"
11
#1619462
0)
0"
01
#1623531
1)
1"
11
#1627600
0)
0"
01
#1631669
1)
1"
11
#1635738
0)
0"
01
#1639807
1)
1"
11
#1643876
0)
0"
01
#1647945
b1111 (
b1111 =
1)
1"
11
1.
1<
b1100 +
#1652014
0)
0"
01
#1656083
b0 (
b0 =
1)
1"
11
0.
0<
#1660152
0)
0"
01
#1664221
1)
1"
11
#1668290
0)
0"
01
#1672359
1)
1"
11
#1676428
0)
0"
01
#1680497
1)
1"
11
#1684566
0)
0"
01
#1688635
1)
1"
11
#1692704
0)
0"
01
#1696773
1)
1"
11
#1700842
0)
0"
01
#1704911
1)
1"
11
#1708980
0)
0"
01
#1713049
1)
1"
11
#1717118
0)
0"
01
#1721187
1)
1"
11
#1725256
0)
0"
01
#1729325
1)
1"
11
#1733394
0)
0"
01
#1737463
b1111 (
b1111 =
1)
1"
11
1.
1<
b1101 +
#1741532
0)
0"
01
#1745601
b0 (
b0 =
1)
1"
11
0.
0<
#1749670
0)
0"
01
#1753739
1)
1"
11
#1757808
0)
0"
01
#1761877
1)
1"
11
#1765946
0)
0"
01
#1770015
1)
1"
11
#1774084
0)
0"
01
#1778153
1)
1"
11
#1782222
0)
0"
01
#1786291
1)
1"
11
#1790360
0)
0"
01
#1794429
1)
1"
11
#1798498
0)
0"
01
#1802567
1)
1"
11
#1806636
0)
0"
01
#1810705
1)
1"
11
#1814774
0)
0"
01
#1818843
1)
1"
11
#1822912
0)
0"
01
#1826981
b1111 (
b1111 =
1)
1"
11
1.
1<
b1110 +
#1831050
0)
0"
01
#1835119
b0 (
b0 =
1)
1"
11
0.
0<
#1839188
0)
0"
01
#1843257
1)
1"
11
#1847326
0)
0"
01
#1851395
1)
1"
11
#1855464
0)
0"
01
#1859533
1)
1"
11
#1863602
0)
0"
01
#1867671
1)
1"
11
#1871740
0)
0"
01
#1875809
1)
1"
11
#1879878
0)
0"
01
#1883947
1)
1"
11
#1888016
0)
0"
01
#1892085
1)
1"
11
#1896154
0)
0"
01
#1900223
1)
1"
11
#1904292
0)
0"
01
#1908361
1)
1"
11
#1912430
0)
0"
01
#1916499
b1111 (
b1111 =
1)
1"
11
1.
1<
0,
06
b0 +
#1920568
0)
0"
01
#1924637
b0 (
b0 =
1)
1"
11
0.
0<
#1928706
0)
0"
01
#1932775
1)
1"
11
#1936844
0)
0"
01
#1940913
1)
1"
11
#1944982
0)
0"
01
#1949051
1)
1"
11
#1953120
0)
0"
01
#1957189
1)
1"
11
#1961258
0)
0"
01
#1965327
1)
1"
11
#1969396
0)
0"
01
#1973465
1)
1"
11
#1977534
0)
0"
01
#1981603
1)
1"
11
#1985672
0)
0"
01
#1989741
1)
1"
11
#1993810
0)
0"
01
#1997879
1)
1"
11
#2001948
0)
0"
01
#2006017
b1111 (
b1111 =
1)
1"
11
1.
1<
b1 +
#2010086
0)
0"
01
#2014155
b0 (
b0 =
1)
1"
11
0.
0<
#2018224
0)
0"
01
#2022293
1)
1"
11
#2026362
0)
0"
01
#2030431
1)
1"
11
#2034500
0)
0"
01
#2038569
1)
1"
11
#2042638
0)
0"
01
#2046707
1)
1"
11
#2050776
0)
0"
01
#2054845
1)
1"
11
#2058914
0)
0"
01
#2062983
1)
1"
11
#2067052
0)
0"
01
#2071121
1)
1"
11
#2075190
0)
0"
01
#2079259
1)
1"
11
#2083328
0)
0"
01
#2087397
1)
1"
11
#2091466
0)
0"
01
#2095535
b1111 (
b1111 =
1)
1"
11
1.
1<
b10 +
#2099604
0)
0"
01
#2103673
b0 (
b0 =
1)
1"
11
0.
0<
#2107742
0)
0"
01
#2111811
1)
1"
11
#2115880
0)
0"
01
#2119949
1)
1"
11
#2124018
0)
0"
01
#2128087
1)
1"
11
#2132156
0)
0"
01
#2136225
1)
1"
11
#2140294
0)
0"
01
#2144363
1)
1"
11
#2148432
0)
0"
01
#2152501
1)
1"
11
#2156570
0)
0"
01
#2160639
1)
1"
11
#2164708
0)
0"
01
#2168777
1)
1"
11
#2172846
0)
0"
01
#2176915
1)
1"
11
#2180984
0)
0"
01
#2185053
b1111 (
b1111 =
1)
1"
11
1.
1<
b11 +
#2189122
0)
0"
01
#2193191
b0 (
b0 =
1)
1"
11
0.
0<
#2197260
0)
0"
01
#2201329
1)
1"
11
#2205398
0)
0"
01
#2209467
1)
1"
11
#2213536
0)
0"
01
#2217605
1)
1"
11
#2221674
0)
0"
01
#2225743
1)
1"
11
#2229812
0)
0"
01
#2233881
1)
1"
11
#2237950
0)
0"
01
#2242019
1)
1"
11
#2246088
0)
0"
01
#2250157
1)
1"
11
#2254226
0)
0"
01
#2258295
1)
1"
11
#2262364
0)
0"
01
#2266433
1)
1"
11
#2270502
0)
0"
01
#2274571
b1111 (
b1111 =
1)
1"
11
1.
1<
b100 +
#2278640
0)
0"
01
#2282709
b0 (
b0 =
1)
1"
11
0.
0<
#2286778
0)
0"
01
#2290847
1)
1"
11
#2294916
0)
0"
01
#2298985
1)
1"
11
#2303054
0)
0"
01
#2307123
1)
1"
11
#2311192
0)
0"
01
#2315261
1)
1"
11
#2319330
0)
0"
01
#2323399
1)
1"
11
#2327468
0)
0"
01
#2331537
1)
1"
11
#2335606
0)
0"
01
#2339675
1)
1"
11
#2343744
0)
0"
01
#2347813
1)
1"
11
#2351882
0)
0"
01
#2355951
1)
1"
11
#2360020
0)
0"
01
#2364089
b1111 (
b1111 =
1)
1"
11
1.
1<
b101 +
#2368158
0)
0"
01
#2372227
b0 (
b0 =
1)
1"
11
0.
0<
#2376296
0)
0"
01
#2380365
1)
1"
11
#2384434
0)
0"
01
#2388503
1)
1"
11
#2392572
0)
0"
01
#2396641
1)
1"
11
#2400710
0)
0"
01
#2404779
1)
1"
11
#2408848
0)
0"
01
#2412917
1)
1"
11
#2416986
0)
0"
01
#2421055
1)
1"
11
#2425124
0)
0"
01
#2429193
1)
1"
11
#2433262
0)
0"
01
#2437331
1)
1"
11
#2441400
0)
0"
01
0-
08
19
#2445469
1C
1:
1B
1)
1"
11
#2449538
0)
0"
01
#2453607
b1 I
b0 J
b0 &
b0 5
b0 E
1G
1$
0K
07
0C
0:
b1111 (
b1111 =
1)
1"
11
1.
1<
b110 +
#2457676
0)
0"
01
#2461745
b0 (
b0 =
1)
1"
11
0.
0<
#2465814
0)
0"
01
#2469883
1)
1"
11
#2473952
0)
0"
01
#2478021
1)
1"
11
#2482090
0)
0"
01
#2486159
1)
1"
11
#2490228
0)
0"
01
#2494297
1)
1"
11
#2498366
0)
0"
01
#2502435
1)
1"
11
#2506504
0)
0"
01
#2510573
1)
1"
11
#2514642
0)
0"
01
#2518711
1)
1"
11
#2522780
0)
0"
01
#2526849
1)
1"
11
#2530918
0)
0"
01
#2534987
1)
1"
11
#2539056
0)
0"
01
#2543125
1@
b1111 (
b1111 =
1)
1"
11
1.
1<
b111 +
#2547194
0)
0"
01
#2551263
b1 A
b0 (
b0 =
1)
1"
11
0.
0<
#2555332
0)
0"
01
#2559401
b10 A
1)
1"
11
#2563470
0)
0"
01
#2567539
0@
b100 ?
b100 0
b100 >
b100 D
b100 !
b100 /
b0 A
1)
1"
11
#2571608
0)
0"
01
#2575677
1)
1"
11
#2579746
0)
0"
01
#2583815
1)
1"
11
#2587884
0)
0"
01
#2591953
1)
1"
11
#2596022
0)
0"
01
#2600091
1)
1"
11
#2604160
0)
0"
01
#2608229
1)
1"
11
#2612298
0)
0"
01
#2616367
1)
1"
11
#2620436
0)
0"
01
#2624505
1)
1"
11
#2628574
0)
0"
01
#2632643
1@
b1111 (
b1111 =
1)
1"
11
1.
1<
b1000 +
#2636712
0)
0"
01
#2640781
b1 A
b0 (
b0 =
1)
1"
11
0.
0<
#2644850
0)
0"
01
#2648919
b10 A
1)
1"
11
#2652988
0)
0"
01
#2657057
0@
b1000 ?
b1000 0
b1000 >
b1000 D
b1000 !
b1000 /
b0 A
1)
1"
11
#2661126
0)
0"
01
#2665195
1)
1"
11
#2669264
0)
0"
01
#2673333
1)
1"
11
#2677402
0)
0"
01
#2681471
1)
1"
11
#2685540
0)
0"
01
#2689609
1)
1"
11
#2693678
0)
0"
01
#2697747
1)
1"
11
#2701816
0)
0"
01
#2705885
1)
1"
11
#2709954
0)
0"
01
#2714023
1)
1"
11
#2718092
0)
0"
01
#2722161
1@
b1111 (
b1111 =
1)
1"
11
1.
1<
b1001 +
#2726230
0)
0"
01
#2730299
b1 A
b0 (
b0 =
1)
1"
11
0.
0<
#2734368
0)
0"
01
#2738437
b10 A
1)
1"
11
#2742506
0)
0"
01
#2746575
0@
b1100 ?
b1100 0
b1100 >
b1100 D
b1100 !
b1100 /
b0 A
1)
1"
11
#2750644
0)
0"
01
#2754713
1)
1"
11
#2758782
0)
0"
01
#2762851
1)
1"
11
#2766920
0)
0"
01
#2770989
1)
1"
11
#2775058
0)
0"
01
#2779127
1)
1"
11
#2783196
0)
0"
01
#2787265
1)
1"
11
#2791334
0)
0"
01
#2795403
1)
1"
11
#2799472
0)
0"
01
#2803541
1)
1"
11
#2807610
0)
0"
01
#2811679
1)
1"
11
b1010 +
